module github.com/terraform-linters/tflint-ruleset-aws

go 1.18

require (
	github.com/agext/levenshtein v1.2.2 // indirect
	github.com/aws/aws-sdk-go v1.44.54
	github.com/dave/dst v0.27.0
	github.com/fatih/color v1.9.0 // indirect
	github.com/golang/mock v1.6.0
	github.com/google/go-cmp v0.5.8
	github.com/hashicorp/aws-sdk-go-base v1.1.0
	github.com/hashicorp/go-cleanhttp v0.5.2 // indirect
	github.com/hashicorp/go-multierror v1.1.1 // indirect
	github.com/hashicorp/hcl/v2 v2.13.0
	github.com/hashicorp/yamux v0.0.0-20181012175058-2f1d1f20f75d // indirect
	github.com/kr/text v0.2.0 // indirect
	github.com/kylelemons/godebug v1.1.0 // indirect
	github.com/mattn/go-colorable v0.1.7 // indirect
	github.com/mitchellh/go-homedir v1.1.0
	github.com/mitchellh/go-testing-interface v1.14.1 // indirect
	github.com/mitchellh/go-wordwrap v1.0.0 // indirect
	github.com/terraform-linters/tflint-plugin-sdk v0.11.0
	github.com/zclconf/go-cty v1.10.0
	google.golang.org/appengine v1.6.6 // indirect
	google.golang.org/genproto v0.0.0-20200711021454-869866162049 // indirect
	google.golang.org/grpc v1.46.0 // indirect
	google.golang.org/protobuf v1.28.0 // indirect
	gopkg.in/check.v1 v1.0.0-20201130134442-10cb98267c6c // indirect
	gopkg.in/yaml.v2 v2.4.0 // indirect
)

require golang.org/x/net v0.0.0-20220127200216-cd36cc0744dd

require (
	github.com/apparentlymart/go-textseg/v13 v13.0.0 // indirect
	github.com/golang/protobuf v1.5.2 // indirect
	github.com/hashicorp/errwrap v1.0.0 // indirect
	github.com/hashicorp/go-hclog v1.2.0 // indirect
	github.com/hashicorp/go-plugin v1.4.3 // indirect
	github.com/jmespath/go-jmespath v0.4.0 // indirect
	github.com/kr/pretty v0.2.1 // indirect
	github.com/mattn/go-isatty v0.0.12 // indirect
	github.com/oklog/run v1.0.0 // indirect
	github.com/vmihailenco/msgpack/v4 v4.3.12 // indirect
	github.com/vmihailenco/tagparser v0.1.1 // indirect
	golang.org/x/mod v0.6.0-dev.0.20220106191415-9b9b3d81d5e3 // indirect
	golang.org/x/sys v0.0.0-20211216021012-1d35b9e2eb4e // indirect
	golang.org/x/text v0.3.7 // indirect
	golang.org/x/tools v0.1.10 // indirect
	golang.org/x/xerrors v0.0.0-20200804184101-5ec99f83aff1 // indirect
)
